Access the City of Toronto Open Data Portal • opendatatoronto
…
list_package_resources("https://open.toronto.ca/dataset/sexual-health-clinic-locations-hours-and-services/")
#> # A tibble: 2 × 4
#>   name                                                id    format last_modified
#>   <chr>                                               <chr> <chr>  <date>       
#> 1 sexual-health-clinic-locations-hours-and-services-… 7076… XLSX   2019-08-15   
#> 2 Sexual-health-clinic-locations-hours-and-services-… 5af8… XLSX   2019-08-15

Finally (and most usefully!), you can download the resource (i.e., the actual data) directly into R using get_resource():

marriage_licence_statistics <- marriage_licence_resources %>%
  head(1) %>%
  get_resource()

marriage_licence_statistics
#> # A tibble: 558 × 4
#>    `_id` CIVIC_CENTRE MARRIAGE_LICENSES TIME_PERIOD
#>    <int> <chr>                    <int> <chr>      
#>  1 19231 ET                          80 2011-01    
#>  2 19232 NY                         136 2011-01    
#>  3 19233 SC                         159 2011-01    
#>  4 19234 TO                         367 2011-01    
#>  5 19235 ET                         109 2011-02    
#>  6 19236 NY                         150 2011-02    
#>  7 19237 SC                         154 2011-02    
#>  8 19238 TO                         383 2011-02    
#>  9 19239 ET                         177 2011-03    
#> 10 19240 NY                         231 2011-03    
#> # ℹ 548 more rows
…
