Introduction to opendatatoronto • opendatatoronto
…
or by passing the package’s portal URL directly:

list_package_resources("https://open.toronto.ca/dataset/apartment-building-registration/")
#> # A tibble: 1 x 4
#>   name                         id                           format last_modified
#>   <chr>                        <chr>                        <chr>  <date>       
#> 1 Apartment Building Registra… 3ad76a8c-0518-4df2-b94e-8c7… CSV    2021-01-06

Finally (and most usefully!), you can download the resource (i.e., the actual data) directly into R using get_resource():

apartment_building_registration_data <- apartment_building_registration_resources %>%
  get_resource()

apartment_building_registration_data
#> # A tibble: 3,462 x 70
#>    `_id` AIR_CONDITIONIN… AMENITIES_AVAIL… ANNUAL_FIRE_ALA… ANNUAL_FIRE_PUM…
#>    <int> <chr>            <chr>            <chr>            <chr>           
#>  1 51801 NONE             <NA>             NO               NO              
#>  2 51802 NONE             <NA>             YES              NO              
#>  3 51803 <NA>             <NA>             <NA>             <NA>            
#>  4 51804 CENTRAL AIR      <NA>             YES              YES             
#>  5 51859 NONE             <NA>             YES              YES             
#>  6 48401 NONE             <NA>             YES              YES             
#>  7 48402 NONE             Outdoor pool , … YES              NO              
#>  8 48403 NONE             <NA>             YES              YES             
#>  9 48404 CENTRAL AIR      <NA>             YES              YES             
#> 10 48405 NONE             <NA>             YES              YES             
#> # … with 3,452 more rows, and 65 more variables:
#> #   APPROVED_FIRE_SAFETY_PLAN <chr>, BALCONIES <chr>,
#> #   BARRIER_FREE_ACCESSIBILTY_ENTR <chr>, BIKE_PARKING <chr>,
#> #   CONFIRMED_STOREYS <dbl>, CONFIRMED_UNITS <dbl>,
#> #   DATE_OF_LAST_INSPECTION_BY_TSSA <chr>,
#> #   DESCRIPTION_OF_CHILD_PLAY_AREA <chr>,
#> #   DESCRIPTION_OF_INDOOR_EXERCISE_ROOM <chr>,
#> #   DESCRIPTION_OF_OUTDOOR_REC_FACILITIES <chr>, ELEVATOR_PARTS_REPLACED <chr>,
#> #   ELEVATOR_STATUS <chr>, EMERG_POWER_SUPPLY_TEST_RECORDS <chr>,
…
