Client for the Toronto Open Data Portal API • opendatatoronto
…
Installation

You can install the development version from GitHub with:

# install.packages("remotes")
remotes::install_github("sharlagelfand/opendatatoronto")

Example

In the Portal, datasets are called packages. You can see a list of available packages by using list_packages():

library(opendatatoronto)
packages <- list_packages(limit = 100)
packages
#> # A tibble: 100 x 8
#>    title id    topics excerpt dataset_category formats refresh_rate
#>    <chr> <chr> <chr>  <chr>   <chr>            <chr>   <chr>       
#>  1 Mont… ec1f… Health "This … Document         XLSX    Monthly     
#>  2 Body… c405… City … This d… Table            WEB,CS… Daily       
#>  3 Stre… 1db3… City … Transi… Map              CSV,GE… Semi-annual…
#>  4 Stre… 74f6… City … Public… Map              CSV,GE… Semi-annual…
#>  5 Stre… 821f… City … Public… Map              CSV,GE… Semi-annual…
#>  6 Stre… ccfd… City … Poster… Map              CSV,GE… Semi-annual…
#>  7 Stre… cf70… City … Poster… Map              CSV,GE… Semi-annual…
#>  8 Stre… 3944… City … Litter… Map              CSV,GE… Semi-annual…
#>  9 Stre… 99b1… City … Inform… Map              CSV,GE… Semi-annual…
#> 10 Stre… 71e6… Trans… "Bike … Map              CSV,GE… Daily       
#> # … with 90 more rows, and 1 more variable: num_resources <int>
…
marriage_licence_resources
#> # A tibble: 1 x 4
#>   name                  format id                      last_modified       
#>   <chr>                 <chr>  <chr>                   <chr>               
#> 1 Marriage Licence Sta… CSV    4d985c1d-9c7e-4f74-986… 2019-08-01T10:10:02…

Finally (and most usefully!), you can download the resource (i.e., the actual data) directly into R using get_resource():

marriage_licence_statistics <- marriage_licence_resources %>%
  get_resource()

marriage_licence_statistics
#> # A tibble: 412 x 4
#>    `_id` CIVIC_CENTRE MARRIAGE_LICENSES TIME_PERIOD
#>    <int> <chr>                    <int> <chr>      
#>  1   409 ET                          80 2011-01    
#>  2   410 NY                         136 2011-01    
#>  3   411 SC                         159 2011-01    
#>  4   412 TO                         367 2011-01    
#>  5   413 ET                         109 2011-02    
#>  6   414 NY                         150 2011-02    
#>  7   415 SC                         154 2011-02    
#>  8   416 TO                         383 2011-02    
#>  9   417 ET                         177 2011-03    
#> 10   418 NY                         231 2011-03    
#> # … with 402 more rows
…
