Retrieving Multiple Resources Using purrr • opendatatoronto
…
      Spatial Data

      Retrieving Multiple Resources Using purrr

      multiple_resources_purrr.Rmd

It may be useful to retrieve multiple or all of the resources for a package. For example, the TTC Subway Delay Data is released monthly, with a new file each month.

library(opendatatoronto)

ttc_subway_delays_resources <- search_packages("TTC Subway Delay Data") %>%
  list_package_resources()

ttc_subway_delays_resources
#> # A tibble: 28 x 4
#>    name                   format id                     last_modified      
#>    <chr>                  <chr>  <chr>                  <chr>              
#>  1 ttc-subway-delay-codes XLSX   fece136b-224a-412a-b1~ 2019-07-23T18:12:2~
#>  2 ttc-subway-delay-jan-~ XLSX   6664420f-316f-4f94-9b~ 2019-07-23T18:12:3~
#>  3 ttc-subway-delay-may-~ XLSX   d1159888-0035-45a0-b2~ 2019-07-23T18:12:3~
#>  4 ttc-subway-delay-june~ XLSX   240d8e8c-d300-4f91-b9~ 2019-07-23T18:12:3~
#>  5 ttc-subway-delay-july~ XLSX   98d4ac77-aa9f-40a3-97~ 2019-07-23T18:12:3~
#>  6 ttc-subway-delay-augu~ XLSX   92e7649a-cf2f-4ac7-98~ 2019-07-23T18:12:3~
#>  7 ttc-subway-delay-sept~ XLSX   61412f10-656b-4992-9a~ 2019-07-23T18:12:3~
#>  8 ttc-subway-delay-octo~ XLSX   69a6db37-7982-49c7-8d~ 2019-07-23T18:12:3~
#>  9 ttc-subway-delay-nove~ XLSX   10080217-8022-41c0-a8~ 2019-07-23T18:12:3~
#> 10 ttc-subway-delay-dece~ XLSX   a731c4bb-630a-4530-b5~ 2019-07-23T18:12:3~
#> # ... with 18 more rows
…
so the data can easily be unnested and combined:

bind_rows(ttc_subway_delays_2019[["data"]])
#> # A tibble: 8,227 x 10
#>    Date                Time  Day   Station Code  `Min Delay` `Min Gap`
#>    <dttm>              <chr> <chr> <chr>   <chr>       <dbl>     <dbl>
#>  1 2019-01-01 00:00:00 01:08 Tues~ YORK M~ PUSI            0         0
#>  2 2019-01-01 00:00:00 02:14 Tues~ ST AND~ PUMST           0         0
#>  3 2019-01-01 00:00:00 02:16 Tues~ JANE S~ TUSC            0         0
#>  4 2019-01-01 00:00:00 02:27 Tues~ BLOOR ~ SUO             0         0
#>  5 2019-01-01 00:00:00 03:03 Tues~ DUPONT~ MUATC          11        16
#>  6 2019-01-01 00:00:00 03:08 Tues~ EGLINT~ EUATC          11        16
#>  7 2019-01-01 00:00:00 03:09 Tues~ DUPONT~ EUATC           6        11
#>  8 2019-01-01 00:00:00 03:26 Tues~ ST CLA~ EUATC           4         9
#>  9 2019-01-01 00:00:00 03:37 Tues~ KENNED~ TUMVS           0         0
#> 10 2019-01-01 00:00:00 08:04 Tues~ DAVISV~ MUNOA           5        10
#> # ... with 8,217 more rows, and 3 more variables: Bound <chr>, Line <chr>,
#> #   Vehicle <dbl>
…
