Retrieving multiple resources using purrr • opendatatoronto
…
  Changelog

      Retrieving multiple resources using purrr

      Source: vignettes/multiple_resources_purrr.Rmd
      multiple_resources_purrr.Rmd

It may be useful to retrieve multiple or all of the resources for a package. For example, the TTC Subway Delay Data is released monthly, with a new file each month.

library(opendatatoronto)

ttc_subway_delays_resources <- list_package_resources("https://open.toronto.ca/dataset/ttc-subway-delay-data/")

ttc_subway_delays_resources
#> # A tibble: 33 x 4
#>    name                         id                          format last_modified
#>    <chr>                        <chr>                       <chr>  <date>       
#>  1 ttc-subway-delay-codes       fece136b-224a-412a-b191-8d… XLSX   2019-08-15   
#>  2 ttc-subway-delay-jan-2014-a… 6664420f-316f-4f94-9ba4-d4… XLSX   2019-08-15   
#>  3 ttc-subway-delay-may-2017    d1159888-0035-45a0-b238-86… XLSX   2019-08-15   
#>  4 ttc-subway-delay-june-2017   240d8e8c-d300-4f91-b94f-cb… XLSX   2019-08-15   
#>  5 ttc-subway-delay-july-2017   98d4ac77-aa9f-40a3-97ee-6f… XLSX   2019-08-15   
#>  6 ttc-subway-delay-august-2017 92e7649a-cf2f-4ac7-9802-b7… XLSX   2019-08-15   
#>  7 ttc-subway-delay-september-… 61412f10-656b-4992-9a1a-a1… XLSX   2019-08-15   
#>  8 ttc-subway-delay-october-20… 69a6db37-7982-49c7-8dbc-56… XLSX   2019-08-15   
#>  9 ttc-subway-delay-november-2… 10080217-8022-41c0-a8ba-2a… XLSX   2019-08-15   
#> 10 ttc-subway-delay-december-2… a731c4bb-630a-4530-b590-b3… XLSX   2019-08-15   
#> # … with 23 more rows
…
so the data can easily be unnested and combined:

bind_rows(ttc_subway_delays_2019[["data"]])
#> # A tibble: 16,185 x 10
#>    Date                Time  Day   Station Code  `Min Delay` `Min Gap` Bound
#>    <dttm>              <chr> <chr> <chr>   <chr>       <dbl>     <dbl> <chr>
#>  1 2019-01-01 00:00:00 01:08 Tues… YORK M… PUSI            0         0 S    
#>  2 2019-01-01 00:00:00 02:14 Tues… ST AND… PUMST           0         0 <NA> 
#>  3 2019-01-01 00:00:00 02:16 Tues… JANE S… TUSC            0         0 W    
#>  4 2019-01-01 00:00:00 02:27 Tues… BLOOR … SUO             0         0 N    
#>  5 2019-01-01 00:00:00 03:03 Tues… DUPONT… MUATC          11        16 N    
#>  6 2019-01-01 00:00:00 03:08 Tues… EGLINT… EUATC          11        16 S    
#>  7 2019-01-01 00:00:00 03:09 Tues… DUPONT… EUATC           6        11 N    
#>  8 2019-01-01 00:00:00 03:26 Tues… ST CLA… EUATC           4         9 N    
#>  9 2019-01-01 00:00:00 03:37 Tues… KENNED… TUMVS           0         0 E    
#> 10 2019-01-01 00:00:00 08:04 Tues… DAVISV… MUNOA           5        10 S    
#> # … with 16,175 more rows, and 2 more variables: Line <chr>, Vehicle <dbl>
…
