Retrieving multi-sheet XLS/XLSX resources • opendatatoronto
…
      Source: vignettes/articles/multisheet_resources.Rmd
      multisheet_resources.Rmd

Excel files (XLS and XLSX) are a common form of data on the City of Toronto Open Data Portal.

In cases where the file only contains one sheet, the resource is
returned as a tibble. For example, this data set on TTC
Ridership Analysis from 1985 to 2018:

library(opendatatoronto)

list_package_resources("https://open.toronto.ca/dataset/ttc-ridership-analysis/") %>%
  get_resource()
#> # A tibble: 71 × 37
#>    TORONTO TRANSIT COMMI…¹ ...2  ...3  ...4  ...5  ...6  ...7  ...8  ...9  ...10
#>    <chr>                   <chr> <chr> <chr> <chr> <chr> <chr> <chr> <chr> <chr>
#>  1 ANALYSIS OF RIDERSHIP   NA    NA    NA    NA    NA    NA    NA    NA    NA   
#>  2 1985 TO 2019 ACTUALS (… NA    NA    NA    NA    NA    NA    NA    NA    NA   
#>  3 NA                      NA    NA    NA    NA    NA    NA    NA    NA    NA   
#>  4 NA                      FARE… 2019  2018  2017  2016  2015… 2014  2013  2012 
#>  5 WHO                     ADULT NA    NA    NA    NA    NA    NA    NA    NA   
#>  6 NA                      PRES… 1906  N/A   N/A   N/A   N/A   N/A   N/A   N/A  
#>  7 NA                      PRES… 829   N/A   N/A   N/A   N/A   N/A   N/A   N/A  
#>  8 NA                      PRES… 1668… 1109… 67829 27397 13323 9862  8194  4399 
#>  9 NA                      PRES… 4340  1496  N/A   N/A   N/A   N/A   N/A   N/A  
#> 10 NA                      PRES… 9937  4442  N/A   N/A   N/A   N/A   N/A   N/A  
#> # ℹ 61 more rows
#> # ℹ abbreviated name: ¹​`TORONTO TRANSIT COMMISSION`
#> # ℹ 27 more variables: ...11 <chr>, ...12 <chr>, ...13 <chr>, ...14 <chr>,
#> #   ...15 <chr>, ...16 <chr>, ...17 <chr>, ...18 <chr>, ...19 <chr>,
#> #   ...20 <chr>, ...21 <chr>, ...22 <chr>, ...23 <chr>, ...24 <chr>,
#> #   ...25 <chr>, ...26 <chr>, ...27 <chr>, ...28 <chr>, ...29 <chr>,
#> #   ...30 <chr>, ...31 <chr>, ...32 <chr>, ...33 <chr>, ...34 <chr>, …
…
wellbeing_toronto_demographics <- list_package_resources("https://open.toronto.ca/dataset/wellbeing-toronto-demographics/") %>%
  filter(name == "wellbeing-toronto-demographics") %>%
  get_resource()

str(wellbeing_toronto_demographics, max.level = 1)
#> List of 3
#>  $ IndicatorMetaData      : tibble [87 × 8] (S3: tbl_df/tbl/data.frame)
#>  $ RawData-Ref Period 2008: tibble [141 × 85] (S3: tbl_df/tbl/data.frame)
#>  $ RawData-Ref Period 2011: tibble [141 × 39] (S3: tbl_df/tbl/data.frame)

To access the relevant sheet, pull out the list element:

wellbeing_toronto_demographics[["IndicatorMetaData"]]
#> # A tibble: 87 × 8
#>    PROVENANCE         SHORT_NAME LONG_NAME DESCRIPTION URL   CURRENCY           
#>    <chr>              <chr>      <chr>     <chr>       <chr> <dttm>             
#>  1 Statistics Canada… Total Pop… Total Po… For Refere… http… 2011-04-25 00:00:00
#>  2 Statistics Canada… Pop - Mal… Total Po… For Refere… http… 2011-04-25 00:00:00
#>  3 Statistics Canada… Pop - Fem… Total Po… For Refere… http… 2011-04-25 00:00:00
#>  4 Statistics Canada… Pop 0 - 4… Total Po… For Refere… http… 2011-04-25 00:00:00
#>  5 Statistics Canada… Pop 5 - 9… Total Po… For Refere… http… 2011-04-25 00:00:00
#>  6 Statistics Canada… Pop 6-12 … Total Po… For Refere… http… 2006-05-01 00:00:00
#>  7 Statistics Canada… Pop 10 - … Total Po… For Refere… http… 2011-04-25 00:00:00
#>  8 Statistics Canada… Pop 15 -1… Total Po… For Refere… http… 2011-04-25 00:00:00
#>  9 Statistics Canada… Pop 20 - … Total Po… For Refere… http… 2011-04-25 00:00:00
#> 10 Statistics Canada… Pop  25 -… Total Po… For Refere… http… 2011-04-25 00:00:00
#> # ℹ 77 more rows
#> # ℹ 2 more variables: DATE_UPDATED <dttm>, DOMAIN <chr>
…
We can rename these two variables:

ttc_bus_delays_2019[["Apr 2019"]] <- ttc_bus_delays_2019[["Apr 2019"]] %>%
  rename(`Min Gap` = Gap, `Min Delay` = Delay)

and combine all of the elements into a single tibble using
dplyr::bind_rows():

ttc_bus_delays_2019_combined <- bind_rows(ttc_bus_delays_2019)

ttc_bus_delays_2019_combined
#> # A tibble: 62,376 × 13
#>    `Report Date`       Route Time                Day     Location       Incident
#>    <dttm>              <dbl> <dttm>              <chr>   <chr>          <chr>   
#>  1 2019-01-01 00:00:00    39 1899-12-31 00:13:00 Tuesday NECR           Mechani…
#>  2 2019-01-01 00:00:00   111 1899-12-31 00:15:00 Tuesday Eglington      Mechani…
#>  3 2019-01-01 00:00:00    35 1899-12-31 00:18:00 Tuesday Finch          Mechani…
#>  4 2019-01-01 00:00:00    25 1899-12-31 00:30:00 Tuesday Don Mills Rd/… Mechani…
#>  5 2019-01-01 00:00:00    36 1899-12-31 00:40:00 Tuesday Humberwood     Investi…
#>  6 2019-01-01 00:00:00    45 1899-12-31 00:51:00 Tuesday Kipling stn    Utilize…
#>  7 2019-01-01 00:00:00    32 1899-12-31 01:55:00 Tuesday Royal York an… Mechani…
#>  8 2019-01-01 00:00:00    53 1899-12-31 02:19:00 Tuesday FSTN           Utilize…
#>  9 2019-01-01 00:00:00   112 1899-12-31 02:33:00 Tuesday Kipling Stati… Mechani…
#> 10 2019-01-01 00:00:00    85 1899-12-31 02:57:00 Tuesday DONS           Mechani…
#> # ℹ 62,366 more rows
#> # ℹ 7 more variables: `Min Delay` <dbl>, `Min Gap` <dbl>, Direction <chr>,
#> #   Vehicle <dbl>, `Incident ID` <dbl>, Delay <dbl>, Gap <dbl>
…
