Introduction to opendatatoronto • opendatatoronto
…
Finally (and most usefully!), you can download the resource (i.e.,
the actual data) directly into R using get_resource():

library(dplyr)

apartment_building_registration_data <- apartment_building_registration_resources %>%
  filter(name == "Apartment Building Registration Data") %>%
  get_resource()

apartment_building_registration_data
#> # A tibble: 3,597 × 70
#>     `_id` AIR_CONDITIONING_TYPE AMENITIES_AVAILABLE    ANNUAL_FIRE_ALARM_TEST_…¹
#>     <int> <chr>                 <chr>                  <chr>                    
#>  1 134649 NONE                  NA                     YES                      
#>  2 134650 NONE                  NA                     YES                      
#>  3 134651 NONE                  NA                     YES                      
#>  4 134652 NONE                  NA                     YES                      
#>  5 134653 NONE                  NA                     YES                      
#>  6 134654 INDIVIDUAL UNITS      NA                     NO                       
#>  7 134655 NONE                  NA                     YES                      
#>  8 134656 NONE                  NA                     YES                      
#>  9 134657 NONE                  NA                     YES                      
#> 10 134658 INDIVIDUAL UNITS      Indoor recreation room YES                      
#> # ℹ 3,587 more rows
#> # ℹ abbreviated name: ¹​ANNUAL_FIRE_ALARM_TEST_RECORDS
#> # ℹ 66 more variables: ANNUAL_FIRE_PUMP_FLOW_TEST_RECORDS <chr>,
#> #   APPROVED_FIRE_SAFETY_PLAN <chr>, BALCONIES <chr>,
#> #   BARRIER_FREE_ACCESSIBILTY_ENTR <chr>, BIKE_PARKING <chr>,
#> #   CONFIRMED_STOREYS <int>, CONFIRMED_UNITS <int>,
#> #   DATE_OF_LAST_INSPECTION_BY_TSSA <chr>, …
…
